{
  "project_info": {
    "project_id": "hairvii-8e120",
    "project_number": "32888868123",
    "name": "Hairvii"
  },
  "client": [
    {
      "client_info": {
        "mobilesdk_app_id": "1:32888868123:android:e101da63b11afa70",
        "client_id": "android:com.karmickdroid.hairvii",
        "client_type": 1,
        "android_client_info": {
          "package_name": "com.karmickdroid.hairvii",
          "certificate_hash": []
        }
      },
      "oauth_client": [
        {
          "client_id": "32888868123-rg0gd04kpm7lippb6juc0tfg5gfo6sfv.apps.googleusercontent.com",
          "client_type": 1,
          "android_info": {
            "package_name": "com.karmickdroid.hairvii",
            "certificate_hash": "DBE23B0B42C8077C5B19A8A62FD2F25426E1FFF7"
          }
        },
        {
          "client_id": "32888868123-h8607q0bjlaq0amij54p8i8q4asies7q.apps.googleusercontent.com",
          "client_type": 3
        }
      ],
      "api_key": [],
      "services": {
        "analytics_service": {
          "status": 1
        },
        "cloud_messaging_service": {
          "status": 2,
          "apns_config": []
        },
        "appinvite_service": {
          "status": 1,
          "other_platform_oauth_client": []
        },
        "google_signin_service": {
          "status": 2
        },
        "ads_service": {
          "status": 1
        }
      }
    }
  ],
  "client_info": [],
  "ARTIFACT_VERSION": "1"
}